sim/System_Trace.vcd
$date
	Tue Dec 16 21:38:35 2025
$end
$version
	Icarus Verilog
$end
$timescale
	1ps
$end
$scope module tb_main_v $end
$var wire 1 ! visual_warning $end
$var wire 2 " system_state [1:0] $end
$var wire 1 # deploy_rear_right $end
$var wire 1 $ deploy_rear_left $end
$var wire 1 % deploy_passenger $end
$var wire 1 & deploy_front_right $end
$var wire 1 ' deploy_front_left $end
$var wire 1 ( deploy_driver $end
$var wire 1 ) deploy_back_right $end
$var wire 1 * deploy_back_left $end
$var wire 8 + ctrl_steer_assist [7:0] $end
$var wire 8 , ctrl_brake_force [7:0] $end
$var reg 16 - accel_x_in [15:0] $end
$var reg 16 . accel_y_in [15:0] $end
$var reg 1 / clk $end
$var reg 8 0 current_velocity_reg [7:0] $end
$var reg 16 1 distance_to_obstacle [15:0] $end
$var reg 8 2 dr_s1 [7:0] $end
$var reg 8 3 dr_s2 [7:0] $end
$var reg 8 4 dr_s3 [7:0] $end
$var reg 8 5 dr_s4 [7:0] $end
$var reg 8 6 driver_brake_pedal [7:0] $end
$var reg 8 7 driver_steering_torque [7:0] $end
$var reg 1 8 obstacle_in $end
$var reg 8 9 ps_s1 [7:0] $end
$var reg 8 : ps_s2 [7:0] $end
$var reg 8 ; ps_s3 [7:0] $end
$var reg 8 < ps_s4 [7:0] $end
$var reg 8 = rl_s1 [7:0] $end
$var reg 8 > rl_s2 [7:0] $end
$var reg 8 ? rl_s3 [7:0] $end
$var reg 8 @ rl_s4 [7:0] $end
$var reg 8 A rr_s1 [7:0] $end
$var reg 8 B rr_s2 [7:0] $end
$var reg 8 C rr_s3 [7:0] $end
$var reg 8 D rr_s4 [7:0] $end
$var reg 1 E rst_n $end
$var reg 16 F total_decel_step [15:0] $end
$scope module DUT $end
$var wire 16 G accel_x_in [15:0] $end
$var wire 16 H accel_y_in [15:0] $end
$var wire 1 / clk $end
$var wire 8 I current_velocity [7:0] $end
$var wire 16 J distance_to_obstacle [15:0] $end
$var wire 8 K dr_s1 [7:0] $end
$var wire 8 L dr_s2 [7:0] $end
$var wire 8 M dr_s3 [7:0] $end
$var wire 8 N dr_s4 [7:0] $end
$var wire 8 O driver_brake_pedal [7:0] $end
$var wire 8 P driver_steering_torque [7:0] $end
$var wire 1 8 obstacle_in $end
$var wire 8 Q ps_s1 [7:0] $end
$var wire 8 R ps_s2 [7:0] $end
$var wire 8 S ps_s3 [7:0] $end
$var wire 8 T ps_s4 [7:0] $end
$var wire 8 U rl_s1 [7:0] $end
$var wire 8 V rl_s2 [7:0] $end
$var wire 8 W rl_s3 [7:0] $end
$var wire 8 X rl_s4 [7:0] $end
$var wire 8 Y rr_s1 [7:0] $end
$var wire 8 Z rr_s2 [7:0] $end
$var wire 8 [ rr_s3 [7:0] $end
$var wire 8 \ rr_s4 [7:0] $end
$var wire 1 E rst_n $end
$var wire 8 ] w_rr [7:0] $end
$var wire 8 ^ w_rl [7:0] $end
$var wire 8 _ w_ps [7:0] $end
$var wire 8 ` w_dr [7:0] $end
$var wire 1 ! visual_warning $end
$var wire 2 a system_state [1:0] $end
$var wire 1 # deploy_rear_right $end
$var wire 1 $ deploy_rear_left $end
$var wire 1 % deploy_passenger $end
$var wire 1 & deploy_front_right $end
$var wire 1 ' deploy_front_left $end
$var wire 1 ( deploy_driver $end
$var wire 1 ) deploy_back_right $end
$var wire 1 * deploy_back_left $end
$var wire 8 b ctrl_steer_assist [7:0] $end
$var wire 8 c ctrl_brake_force [7:0] $end
$var wire 2 d class_rear_right [1:0] $end
$var wire 2 e class_rear_left [1:0] $end
$var wire 2 f class_pass [1:0] $end
$var wire 2 g class_driver [1:0] $end
$scope module ACU_MAIN_UNIT $end
$var wire 1 / clk $end
$var wire 2 h fsm_state [1:0] $end
$var wire 16 i raw_accel_x [15:0] $end
$var wire 16 j raw_accel_y [15:0] $end
$var wire 1 8 raw_obstacle_det $end
$var wire 1 E rst_n $end
$var wire 2 k pass_front [1:0] $end
$var wire 2 l pass_back_right [1:0] $end
$var wire 2 m pass_back_left [1:0] $end
$var wire 2 n driver [1:0] $end
$var wire 1 o clean_obstacle $end
$var wire 16 p clean_accel_y [15:0] $end
$var wire 16 q clean_accel_x [15:0] $end
$var reg 2 r current_state [1:0] $end
$var reg 1 * deploy_back_left $end
$var reg 1 ) deploy_back_right $end
$var reg 1 ( deploy_driver $end
$var reg 1 ' deploy_front_left $end
$var reg 1 & deploy_front_right $end
$var reg 1 % deploy_passenger $end
$var reg 1 $ deploy_rear_left $end
$var reg 1 # deploy_rear_right $end
$var reg 2 s next_state [1:0] $end
$scope module sync_acc_x $end
$var wire 16 t async_in [15:0] $end
$var wire 1 / clk $end
$var wire 1 E rst_n $end
$var reg 16 u stage1 [15:0] $end
$var reg 16 v sync_out [15:0] $end
$upscope $end
$scope module sync_acc_y $end
$var wire 16 w async_in [15:0] $end
$var wire 1 / clk $end
$var wire 1 E rst_n $end
$var reg 16 x stage1 [15:0] $end
$var reg 16 y sync_out [15:0] $end
$upscope $end
$scope module sync_radar $end
$var wire 1 8 async_in $end
$var wire 1 / clk $end
$var wire 1 E rst_n $end
$var reg 1 z stage1 $end
$var reg 1 o sync_out $end
$upscope $end
$upscope $end
$scope module ASU_BRAKE_STEER $end
$var wire 8 { async_driver_brake_pedal [7:0] $end
$var wire 8 | async_driver_steering_torque [7:0] $end
$var wire 1 / clk $end
$var wire 8 } current_velocity [7:0] $end
$var wire 16 ~ distance_to_obstacle [15:0] $end
$var wire 1 8 is_obstacle_valid $end
$var wire 1 E rst_n $end
$var wire 8 !" raw_steer_sync [7:0] $end
$var wire 8 "" clean_steer_torque [7:0] $end
$var wire 8 #" clean_brake_pedal [7:0] $end
$var reg 8 $" abs_steer_torque [7:0] $end
$var reg 8 %" calculated_physics_brake [7:0] $end
$var reg 1 &" enable_evasive_assist $end
$var reg 8 '" final_brake_command [7:0] $end
$var reg 16 (" raw_assist_cal [15:0] $end
$var reg 32 )" required_brake_energy [31:0] $end
$var reg 8 *" steer_assist_command [7:0] $end
$var reg 8 +" tentative_brake [7:0] $end
$var reg 8 ," traction_limit_brake [7:0] $end
$var reg 32 -" velocity_squared [31:0] $end
$var reg 1 ! warning_visual_active $end
$scope module u_sync_brake $end
$var wire 8 ." async_in [7:0] $end
$var wire 1 / clk $end
$var wire 1 E rst_n $end
$var reg 8 /" stage1 [7:0] $end
$var reg 8 0" sync_out [7:0] $end
$upscope $end
$scope module u_sync_steer $end
$var wire 8 1" async_in [7:0] $end
$var wire 1 / clk $end
$var wire 1 E rst_n $end
$var reg 8 2" stage1 [7:0] $end
$var reg 8 3" sync_out [7:0] $end
$upscope $end
$upscope $end
$scope module OCM_DRIVER $end
$var wire 8 4" SensorBackLeft_raw [7:0] $end
$var wire 8 5" SensorBackRight_raw [7:0] $end
$var wire 8 6" SensorFrontLeft_raw [7:0] $end
$var wire 8 7" SensorFrontRight_raw [7:0] $end
$var wire 1 / clk $end
$var wire 1 E rst_n $end
$var wire 8 8" FR_sync [7:0] $end
$var wire 8 9" FL_sync [7:0] $end
$var wire 8 :" BR_sync [7:0] $end
$var wire 8 ;" BL_sync [7:0] $end
$var reg 2 <" classify [1:0] $end
$var reg 10 =" current_total [9:0] $end
$var reg 8 >" weight_kg [7:0] $end
$scope module u_sync_1 $end
$var wire 8 ?" async_in [7:0] $end
$var wire 1 / clk $end
$var wire 1 E rst_n $end
$var reg 8 @" stage1 [7:0] $end
$var reg 8 A" sync_out [7:0] $end
$upscope $end
$scope module u_sync_2 $end
$var wire 8 B" async_in [7:0] $end
$var wire 1 / clk $end
$var wire 1 E rst_n $end
$var reg 8 C" stage1 [7:0] $end
$var reg 8 D" sync_out [7:0] $end
$upscope $end
$scope module u_sync_3 $end
$var wire 8 E" async_in [7:0] $end
$var wire 1 / clk $end
$var wire 1 E rst_n $end
$var reg 8 F" stage1 [7:0] $end
$var reg 8 G" sync_out [7:0] $end
$upscope $end
$scope module u_sync_4 $end
$var wire 8 H" async_in [7:0] $end
$var wire 1 / clk $end
$var wire 1 E rst_n $end
$var reg 8 I" stage1 [7:0] $end
$var reg 8 J" sync_out [7:0] $end
$upscope $end
$upscope $end
$scope module OCM_PASSENGER $end
$var wire 8 K" SensorBackLeft_raw [7:0] $end
$var wire 8 L" SensorBackRight_raw [7:0] $end
$var wire 8 M" SensorFrontLeft_raw [7:0] $end
$var wire 8 N" SensorFrontRight_raw [7:0] $end
$var wire 1 / clk $end
$var wire 1 E rst_n $end
$var wire 8 O" FR_sync [7:0] $end
$var wire 8 P" FL_sync [7:0] $end
$var wire 8 Q" BR_sync [7:0] $end
$var wire 8 R" BL_sync [7:0] $end
$var reg 2 S" classify [1:0] $end
$var reg 10 T" current_total [9:0] $end
$var reg 8 U" weight_kg [7:0] $end
$scope module u_sync_1 $end
$var wire 8 V" async_in [7:0] $end
$var wire 1 / clk $end
$var wire 1 E rst_n $end
$var reg 8 W" stage1 [7:0] $end
$var reg 8 X" sync_out [7:0] $end
$upscope $end
$scope module u_sync_2 $end
$var wire 8 Y" async_in [7:0] $end
$var wire 1 / clk $end
$var wire 1 E rst_n $end
$var reg 8 Z" stage1 [7:0] $end
$var reg 8 [" sync_out [7:0] $end
$upscope $end
$scope module u_sync_3 $end
$var wire 8 \" async_in [7:0] $end
$var wire 1 / clk $end
$var wire 1 E rst_n $end
$var reg 8 ]" stage1 [7:0] $end
$var reg 8 ^" sync_out [7:0] $end
$upscope $end
$scope module u_sync_4 $end
$var wire 8 _" async_in [7:0] $end
$var wire 1 / clk $end
$var wire 1 E rst_n $end
$var reg 8 `" stage1 [7:0] $end
$var reg 8 a" sync_out [7:0] $end
$upscope $end
$upscope $end
$scope module OCM_REAR_LEFT $end
$var wire 8 b" SensorBackLeft_raw [7:0] $end
$var wire 8 c" SensorBackRight_raw [7:0] $end
$var wire 8 d" SensorFrontLeft_raw [7:0] $end
$var wire 8 e" SensorFrontRight_raw [7:0] $end
$var wire 1 / clk $end
$var wire 1 E rst_n $end
$var wire 8 f" FR_sync [7:0] $end
$var wire 8 g" FL_sync [7:0] $end
$var wire 8 h" BR_sync [7:0] $end
$var wire 8 i" BL_sync [7:0] $end
$var reg 2 j" classify [1:0] $end
$var reg 10 k" current_total [9:0] $end
$var reg 8 l" weight_kg [7:0] $end
$scope module u_sync_1 $end
$var wire 8 m" async_in [7:0] $end
$var wire 1 / clk $end
$var wire 1 E rst_n $end
$var reg 8 n" stage1 [7:0] $end
$var reg 8 o" sync_out [7:0] $end
$upscope $end
$scope module u_sync_2 $end
$var wire 8 p" async_in [7:0] $end
$var wire 1 / clk $end
$var wire 1 E rst_n $end
$var reg 8 q" stage1 [7:0] $end
$var reg 8 r" sync_out [7:0] $end
$upscope $end
$scope module u_sync_3 $end
$var wire 8 s" async_in [7:0] $end
$var wire 1 / clk $end
$var wire 1 E rst_n $end
$var reg 8 t" stage1 [7:0] $end
$var reg 8 u" sync_out [7:0] $end
$upscope $end
$scope module u_sync_4 $end
$var wire 8 v" async_in [7:0] $end
$var wire 1 / clk $end
$var wire 1 E rst_n $end
$var reg 8 w" stage1 [7:0] $end
$var reg 8 x" sync_out [7:0] $end
$upscope $end
$upscope $end
$scope module OCM_REAR_RIGHT $end
$var wire 8 y" SensorBackLeft_raw [7:0] $end
$var wire 8 z" SensorBackRight_raw [7:0] $end
$var wire 8 {" SensorFrontLeft_raw [7:0] $end
$var wire 8 |" SensorFrontRight_raw [7:0] $end
$var wire 1 / clk $end
$var wire 1 E rst_n $end
$var wire 8 }" FR_sync [7:0] $end
$var wire 8 ~" FL_sync [7:0] $end
$var wire 8 !# BR_sync [7:0] $end
$var wire 8 "# BL_sync [7:0] $end
$var reg 2 ## classify [1:0] $end
$var reg 10 $# current_total [9:0] $end
$var reg 8 %# weight_kg [7:0] $end
$scope module u_sync_1 $end
$var wire 8 &# async_in [7:0] $end
$var wire 1 / clk $end
$var wire 1 E rst_n $end
$var reg 8 '# stage1 [7:0] $end
$var reg 8 (# sync_out [7:0] $end
$upscope $end
$scope module u_sync_2 $end
$var wire 8 )# async_in [7:0] $end
$var wire 1 / clk $end
$var wire 1 E rst_n $end
$var reg 8 *# stage1 [7:0] $end
$var reg 8 +# sync_out [7:0] $end
$upscope $end
$scope module u_sync_3 $end
$var wire 8 ,# async_in [7:0] $end
$var wire 1 / clk $end
$var wire 1 E rst_n $end
$var reg 8 -# stage1 [7:0] $end
$var reg 8 .# sync_out [7:0] $end
$upscope $end
$scope module u_sync_4 $end
$var wire 8 /# async_in [7:0] $end
$var wire 1 / clk $end
$var wire 1 E rst_n $end
$var reg 8 0# stage1 [7:0] $end
$var reg 8 1# sync_out [7:0] $end
$upscope $end
$upscope $end
$upscope $end
$upscope $end
$enddefinitions $end
#0
$dumpvars
b0 1#
b0 0#
b0 /#
b0 .#
b0 -#
b0 ,#
b0 +#
b0 *#
b0 )#
b0 (#
b0 '#
b0 &#
b0 %#
b0 $#
b0 ##
b0 "#
b0 !#
b0 ~"
b0 }"
b0 |"
b0 {"
b0 z"
b0 y"
b0 x"
b0 w"
b0 v"
b0 u"
b0 t"
b0 s"
b0 r"
b0 q"
b0 p"
b0 o"
b0 n"
b0 m"
b0 l"
b0 k"
b0 j"
b0 i"
b0 h"
b0 g"
b0 f"
b0 e"
b0 d"
b0 c"
b0 b"
b0 a"
b0 `"
b10100 _"
b0 ^"
b0 ]"
b10100 \"
b0 ["
b0 Z"
b10100 Y"
b0 X"
b0 W"
b10100 V"
b0 U"
b0 T"
b0 S"
b0 R"
b0 Q"
b0 P"
b0 O"
b10100 N"
b10100 M"
b10100 L"
b10100 K"
b0 J"
b0 I"
b10100 H"
b0 G"
b0 F"
b10100 E"
b0 D"
b0 C"
b10100 B"
b0 A"
b0 @"
b10100 ?"
b0 >"
b0 ="
b0 <"
b0 ;"
b0 :"
b0 9"
b0 8"
b10100 7"
b10100 6"
b10100 5"
b10100 4"
b0 3"
b0 2"
b0 1"
b0 0"
b0 /"
b0 ."
b0 -"
b11111111 ,"
b0 +"
b0 *"
b0 )"
b0 ("
b0 '"
0&"
b0 %"
b0 $"
b0 #"
b0 ""
b0 !"
b111110100 ~
b0 }
b0 |
b0 {
0z
b0 y
b0 x
b0 w
b0 v
b0 u
b0 t
b0 s
b0 r
b0 q
b0 p
0o
b0 n
b0 m
b0 l
b0 k
b0 j
b0 i
b0 h
b0 g
b0 f
b0 e
b0 d
b0 c
b0 b
b0 a
b0 `
b0 _
b0 ^
b0 ]
b0 \
b0 [
b0 Z
b0 Y
b0 X
b0 W
b0 V
b0 U
b10100 T
b10100 S
b10100 R
b10100 Q
b0 P
b0 O
b10100 N
b10100 M
b10100 L
b10100 K
b111110100 J
b0 I
b0 H
b0 G
b0 F
0E
b0 D
b0 C
b0 B
b0 A
b0 @
b0 ?
b0 >
b0 =
b10100 <
b10100 ;
b10100 :
b10100 9
08
b0 7
b0 6
b10100 5
b10100 4
b10100 3
b10100 2
b111110100 1
b0 0
0/
b0 .
b0 -
b0 ,
b0 +
0*
0)
0(
0'
0&
0%
0$
0#
b0 "
0!
$end
#5000
1/
#10000
0/
#15000
1/
#20000
0/
1E
#25000
b10100 `"
b10100 ]"
b10100 Z"
b10100 W"
b10100 I"
b10100 F"
b10100 C"
b10100 @"
1/
#30000
0/
#35000
b10100 9"
b10100 A"
b10100 8"
b10100 D"
b10100 ;"
b10100 G"
b10100 :"
b10100 J"
b10100 P"
b10100 X"
b10100 O"
b10100 ["
b10100 R"
b10100 ^"
b10100 Q"
b10100 a"
1/
#40000
0/
#45000
b1010000 T"
b1010000 ="
1/
#50000
0/
#55000
1/
#60000
0/
#65000
b10100 _
b10100 U"
b10100 `
b10100 >"
1/
#70000
0/
18
#75000
b1 g
b1 n
b1 <"
b101000 `
b101000 >"
b1 f
b1 k
b1 S"
b101000 _
b101000 U"
1z
1/
#80000
0/
#85000
b1 s
1o
b10 f
b10 k
b10 S"
b111100 _
b111100 U"
b10 g
b10 n
b10 <"
b111100 `
b111100 >"
1/
#90000
0/
#95000
b1010000 `
b1010000 >"
b1010000 _
b1010000 U"
b1 "
b1 a
b1 h
b1 r
1/
#100000
0/
#105000
1/
#110000
0/
#115000
1/
#120000
0/
08
#125000
0z
1/
#130000
0/
#135000
b0 s
0o
1/
#140000
0/
#145000
b0 "
b0 a
b0 h
b0 r
1/
#150000
0/
#155000
1/
#160000
0/
#165000
1/
#170000
0/
#175000
1/
#180000
0/
#185000
1/
#190000
0/
#195000
1/
#200000
0/
#205000
1/
#210000
0/
#215000
1/
#220000
0/
18
b101000 0
b101000 I
b101000 }
#225000
b100000 %"
1z
b100000 )"
b11001000000 -"
1/
#230000
0/
#235000
b1 s
1o
1/
#240000
0/
b1010 1
b1010 J
b1010 ~
#245000
b11111111 %"
b1 "
b1 a
b1 h
b1 r
b11001000000 )"
1/
#250000
0/
#255000
1&"
b11111111 ,
b11111111 c
b11111111 '"
1!
b11111111 +"
1/
#260000
0/
#265000
b11011 0
b11011 I
b11011 }
b1101 F
1/
#270000
0/
#275000
b1110 0
b1110 I
b1110 }
b1011011001 )"
b1011011001 -"
1/
#280000
0/
#285000
b1 0
b1 I
b1 }
b11000100 %"
b11000100 )"
b11000100 -"
1/
#290000
0/
#295000
b1 %"
b0 ,
b0 c
b0 '"
0!
b0 0
b0 I
b0 }
b1 )"
b1 -"
b0 +"
1/
#300000
0/
#305000
0&"
b0 %"
b0 F
b0 )"
b0 -"
1/
#310000
0/
#315000
1/
#320000
0/
#325000
1/
#330000
0/
#335000
1/
#340000
0/
08
#345000
0z
1/
#350000
0/
#355000
b0 s
0o
1/
#360000
0/
#365000
b0 "
b0 a
b0 h
b0 r
1/
#370000
0/
#375000
1/
#380000
0/
#385000
1/
#390000
0/
18
b1100100 1
b1100100 J
b1100100 ~
b11111111 6
b11111111 O
b11111111 {
b11111111 ."
b1010000 0
b1010000 I
b1010000 }
#395000
1z
b11111111 /"
b11111111 %"
b1010000000 )"
b1100100000000 -"
1/
#400000
0/
b111100 7
b111100 P
b111100 |
b111100 1"
#405000
b1 s
b11111111 ,
b11111111 c
b11111111 '"
1!
1&"
b111100 2"
b11111111 #"
b11111111 0"
1o
b11111111 +"
1/
#410000
0/
#415000
b1 "
b1 a
b1 h
b1 r
b111100 !"
b111100 ""
b111100 3"
0!
b1000011 0
b1000011 I
b1000011 }
b1101 F
1/
#420000
0/
#425000
b110110 0
b110110 I
b110110 }
b1010000 +
b1010000 b
b1010000 *"
b111100 $"
b10110100 ("
b111000000 )"
b1000110001001 -"
1/
#430000
0/
#435000
b10000111 ,"
b101001 0
b101001 I
b101001 }
b100100011 )"
b101101100100 -"
1/
#440000
0/
#445000
b11100 0
b11100 I
b11100 }
b10000111 ,
b10000111 c
b10000111 '"
b10101000 %"
b10101000 )"
b11010010001 -"
1/
#450000
0/
08
b0 7
b0 P
b0 |
b0 1"
#455000
0z
b0 2"
b11111111 ,"
b0 +
b0 b
b0 *"
0&"
b0 %"
b11111111 ,
b11111111 c
b11111111 '"
b10110 0
b10110 I
b10110 }
b110 F
1/
#460000
0/
#465000
b0 s
b1001 0
b1001 I
b1001 }
b0 !"
b0 ""
b0 3"
0o
b1101 F
1/
#470000
0/
#475000
b0 "
b0 a
b0 h
b0 r
b0 0
b0 I
b0 }
1/
#480000
0/
#485000
1/
#490000
0/
#495000
1/
#500000
0/
b1110110001111000 -
b1110110001111000 G
b1110110001111000 i
b1110110001111000 t
b11110 0
b11110 I
b11110 }
#505000
b10001 0
b10001 I
b10001 }
b1110110001111000 u
1/
#510000
0/
#515000
b10 s
b1110110001111000 q
b1110110001111000 v
b100 0
b100 I
b100 }
1/
#520000
0/
#525000
b0 0
b0 I
b0 }
1%
1(
b10 "
b10 a
b10 h
b10 r
1/
#530000
0/
#535000
1/
#540000
0/
#545000
1/
#550000
0/
#555000
1/
#560000
0/
#565000
1/
#570000
0/
#575000
1/
#580000
0/
#585000
1/
#590000
0/
#595000
1/
#600000
0/
b101 <
b101 T
b101 L"
b101 _"
b101 ;
b101 S
b101 K"
b101 \"
b101 :
b101 R
b101 N"
b101 Y"
b101 9
b101 Q
b101 M"
b101 V"
#605000
b101 `"
b101 ]"
b101 Z"
b101 W"
1/
#610000
0/
#615000
b101 P"
b101 X"
b101 O"
b101 ["
b101 R"
b101 ^"
b101 Q"
b101 a"
1/
#620000
b0 s
b0 F
b0 +"
b0 ,
b0 c
b0 '"
b0 ("
b0 )"
b0 -"
b0 $"
b0 #"
b0 0"
b0 /"
0%
0(
b0 "
b0 a
b0 h
b0 r
b0 q
b0 v
b0 u
b0 T"
b0 f
b0 k
b0 S"
b0 _
b0 U"
b0 Q"
b0 a"
b0 `"
b0 R"
b0 ^"
b0 ]"
b0 O"
b0 ["
b0 Z"
b0 P"
b0 X"
b0 W"
b0 ="
b0 g
b0 n
b0 <"
b0 `
b0 >"
b0 :"
b0 J"
b0 I"
b0 ;"
b0 G"
b0 F"
b0 8"
b0 D"
b0 C"
b0 9"
b0 A"
b0 @"
0/
0E
#625000
1/
#630000
0/
#635000
1/
#640000
0/
1E
#645000
b10100 @"
b10100 C"
b10100 F"
b10100 I"
b101 W"
b101 Z"
b101 ]"
b101 `"
b1110110001111000 u
b11111111 /"
1/
#650000
0/
#655000
b10 s
b11111111 #"
b11111111 0"
b1110110001111000 q
b1110110001111000 v
b101 Q"
b101 a"
b101 R"
b101 ^"
b101 O"
b101 ["
b101 P"
b101 X"
b10100 :"
b10100 J"
b10100 ;"
b10100 G"
b10100 8"
b10100 D"
b10100 9"
b10100 A"
1/
#660000
0/
#665000
b1010000 ="
b10100 T"
b10 "
b10 a
b10 h
b10 r
b11111111 ,
b11111111 c
b11111111 '"
1/
#670000
0/
#675000
b1101 F
1/
#680000
0/
#685000
b10100 `
b10100 >"
b101 _
b101 U"
1/
#690000
0/
#695000
b1010 _
b1010 U"
b1 g
b1 n
b1 <"
b101000 `
b101000 >"
1/
#700000
0/
#705000
b10 g
b10 n
b10 <"
b111100 `
b111100 >"
b1 f
b1 k
b1 S"
b1111 _
b1111 U"
1/
#710000
0/
#715000
1(
b10100 _
b10100 U"
b1010000 `
b1010000 >"
1/
#720000
0/
#725000
1/
#730000
0/
#735000
1/
#740000
0/
b101110111000 .
b101110111000 H
b101110111000 j
b101110111000 w
b0 -
b0 G
b0 i
b0 t
#745000
b0 u
b101110111000 x
1/
#750000
0/
#755000
b101110111000 p
b101110111000 y
b0 q
b0 v
1/
#760000
0/
#765000
1'
1/
